<svg xmlns="http://www.w3.org/2000/svg" width="8.645" height="14" viewBox="0 0 8.645 14">
  <path id="Icon_material-navigate-next" data-name="Icon material-navigate-next" d="M14.53,9l-1.645,1.645L18.228,16l-5.343,5.355L14.53,23l7-7Z" transform="translate(-12.885 -9)"/>
</svg>
