<svg xmlns="http://www.w3.org/2000/svg" width="20" height="15.051" viewBox="0 0 20 15.051">
  <path id="합치기_1" data-name="합치기 1" d="M2.829,13.927l-.055-3.553H4.993l.026,1.592H6.1a.558.558,0,0,0,.554-.562v-.961a10.4,10.4,0,0,1,1.111.156v.8A1.674,1.674,0,0,1,6.1,13.09H5.036l.013.835a1.111,1.111,0,1,1-2.221,0Zm10.8-2.213V1.126a1.11,1.11,0,1,1,2.22,0V11.714a1.11,1.11,0,1,1-2.22,0Zm-1.346-.5a11.774,11.774,0,0,0-5.629-1.9V3.558a11.813,11.813,0,0,0,5.629-1.933l.236-.16v9.91Zm5.2-1.165L16.7,9.255a.567.567,0,0,1,0-.8.55.55,0,0,1,.784,0l.784.8a.566.566,0,0,1,0,.794.546.546,0,0,1-.784,0ZM1.665,9.25A1.676,1.676,0,0,1,0,7.563V5.313A1.676,1.676,0,0,1,1.665,3.627H5.55V9.25Zm.555-2.812A.559.559,0,0,0,2.775,7H3.885a.562.562,0,0,0,0-1.124H2.775A.559.559,0,0,0,2.219,6.438Zm15.656.594a.562.562,0,0,1,0-1.124h1.57a.562.562,0,0,1,0,1.124ZM16.7,4.483a.567.567,0,0,1,0-.8l.784-.794a.547.547,0,0,1,.784,0,.566.566,0,0,1,0,.794l-.784.8a.55.55,0,0,1-.784,0Z" fill="#31924d"/>
</svg>
