<svg xmlns="http://www.w3.org/2000/svg" width="62.839" height="64.583" viewBox="0 0 62.839 64.583">
  <g id="그룹_1487" data-name="그룹 1487" transform="translate(-919 -378.855)">
    <g id="그룹_1212" data-name="그룹 1212" transform="translate(940.911 398.832)">
      <path id="패스_3747" data-name="패스 3747" d="M311.057,302.766H297.871a2.854,2.854,0,1,0,0,5.706h2.409v-1.613h8.588v1.613h2.19a2.854,2.854,0,1,0,0-5.706Z" transform="translate(-294.945 -302.766)" fill="#31924d"/>
    </g>
    <path id="패스_3748" data-name="패스 3748" d="M294.441,338.7c0-1.974-1.642-6.7-3.667-6.7s-3.666,4.729-3.666,6.7a3.668,3.668,0,0,0,7.334,0Z" transform="translate(644.646 100.134)" fill="#95c572"/>
    <path id="패스_3749" data-name="패스 3749" d="M294.441,329.676c0-1.975-1.642-6.7-3.667-6.7s-3.666,4.729-3.666,6.7a3.668,3.668,0,0,0,7.334,0Z" transform="translate(644.646 98.878)" fill="#31924d"/>
    <path id="패스_3750" data-name="패스 3750" d="M307.4,338.7c0-1.974-1.642-6.7-3.666-6.7s-3.666,4.729-3.666,6.7a3.668,3.668,0,0,0,7.333,0Z" transform="translate(646.828 100.134)" fill="#31924d"/>
    <path id="패스_3751" data-name="패스 3751" d="M307.4,329.676c0-1.975-1.642-6.7-3.666-6.7s-3.666,4.729-3.666,6.7a3.668,3.668,0,0,0,7.333,0Z" transform="translate(646.828 98.878)" fill="#95c572"/>
    <path id="패스_3752" data-name="패스 3752" d="M320.358,338.7c0-1.974-1.642-6.7-3.666-6.7s-3.666,4.729-3.666,6.7a3.668,3.668,0,0,0,7.333,0Z" transform="translate(649.01 100.134)" fill="#95c572"/>
    <path id="패스_3753" data-name="패스 3753" d="M320.358,329.676c0-1.975-1.642-6.7-3.666-6.7s-3.666,4.729-3.666,6.7a3.668,3.668,0,0,0,7.333,0Z" transform="translate(649.01 98.878)" fill="#31924d"/>
    <path id="패스_3754" data-name="패스 3754" d="M298.063,286.136a5.878,5.878,0,0,0,11.752,0Z" transform="translate(646.49 93.752)" fill="#95c572"/>
    <path id="패스_3755" data-name="패스 3755" d="M338.517,315.748a1.016,1.016,0,0,0,.287-.706,1.045,1.045,0,0,0-1.057-1.032h-.25c-.775-1.3-.606-3.294.158-3.853a1.017,1.017,0,0,0,.368-1.152,1.055,1.055,0,0,0-1-.705h-10.14a1.055,1.055,0,0,0-1,.705,1.016,1.016,0,0,0,.369,1.152c.764.558.932,2.557.157,3.853h-.249a1.046,1.046,0,0,0-1.059,1.032,1.012,1.012,0,0,0,.289.706,6.727,6.727,0,0,0-.515,2.589,6.889,6.889,0,0,0,3.775,6.1,8.123,8.123,0,0,1-6.03,2.637,7.967,7.967,0,0,1-8.054-7.394,6.834,6.834,0,0,0,.135-1.346,6.724,6.724,0,0,0-.515-2.589,1.012,1.012,0,0,0,.289-.706,1.045,1.045,0,0,0-1.059-1.032h-.249a3.947,3.947,0,0,1-.5-2.065h1.56a3.882,3.882,0,0,0,.4-7.751,2.866,2.866,0,0,1,5.725.125v1.922a3.03,3.03,0,0,0,6.058,0,1.059,1.059,0,0,0-2.117,0,.912.912,0,0,1-1.824,0v-1.922a4.985,4.985,0,0,0-9.96-.145h-2.393A3.658,3.658,0,0,0,310.3,303a3.4,3.4,0,0,0-.762-2.2,3.565,3.565,0,0,0,0-4.405,3.406,3.406,0,0,0,.762-2.2,3.577,3.577,0,0,0-.349-1.563,6.784,6.784,0,0,0,4.609-6.368,1.045,1.045,0,0,0-1.059-1.032H301.746a1.045,1.045,0,0,0-1.059,1.032,6.786,6.786,0,0,0,4.609,6.368,3.573,3.573,0,0,0-.348,1.563,3.4,3.4,0,0,0,.762,2.2,3.565,3.565,0,0,0,0,4.405,3.394,3.394,0,0,0-.762,2.2,3.66,3.66,0,0,0,.188,1.171h-2.392a4.985,4.985,0,0,0-9.96.145v1.922a.913.913,0,0,1-1.825,0,1.059,1.059,0,0,0-2.117,0,3.03,3.03,0,0,0,6.058,0v-1.922a2.866,2.866,0,0,1,5.725-.125,3.882,3.882,0,0,0,.4,7.751h1.539a3.936,3.936,0,0,1-.5,2.065h-.249a1.046,1.046,0,0,0-1.059,1.032,1.012,1.012,0,0,0,.289.706,6.743,6.743,0,0,0-.379,3.936,7.968,7.968,0,0,1-8.055,7.394,8.125,8.125,0,0,1-6.03-2.637,6.889,6.889,0,0,0,3.775-6.1,6.727,6.727,0,0,0-.514-2.589,1.014,1.014,0,0,0,.287-.706,1.044,1.044,0,0,0-1.057-1.031h-.25c-.775-1.3-.606-3.3.158-3.854a1.017,1.017,0,0,0,.369-1.152,1.058,1.058,0,0,0-1-.705H278.2a1.055,1.055,0,0,0-1,.705,1.017,1.017,0,0,0,.369,1.152c.764.558.932,2.557.157,3.854h-.249a1.045,1.045,0,0,0-1.059,1.031,1.01,1.01,0,0,0,.289.706,6.726,6.726,0,0,0-.515,2.589,7,7,0,0,0,7.083,6.906,7.343,7.343,0,0,0,1.171-.1,10.148,10.148,0,0,0,5.539,3.661,9.264,9.264,0,0,0-.93,1.6,12.154,12.154,0,0,0-1.168,4.518,4.585,4.585,0,0,0,2.273,3.935,8.732,8.732,0,0,0-1.1,1.825,12.154,12.154,0,0,0-1.168,4.518,4.726,4.726,0,0,0,9.45,0,12.174,12.174,0,0,0-1.167-4.518,8.808,8.808,0,0,0-1.1-1.825,4.584,4.584,0,0,0,2.271-3.935,12.174,12.174,0,0,0-1.167-4.518,9.253,9.253,0,0,0-.931-1.6,10.083,10.083,0,0,0,6.906-6.087,7.123,7.123,0,0,0,4.409,2.443V327.5a6.019,6.019,0,0,0-2.358,2.908,12.154,12.154,0,0,0-1.168,4.518,4.585,4.585,0,0,0,2.273,3.935,8.733,8.733,0,0,0-1.1,1.825,12.154,12.154,0,0,0-1.168,4.518,4.726,4.726,0,0,0,9.45,0,12.153,12.153,0,0,0-1.168-4.518,8.752,8.752,0,0,0-1.1-1.825,4.586,4.586,0,0,0,2.271-3.935,12.153,12.153,0,0,0-1.168-4.518,5.568,5.568,0,0,0-2.639-3.037v-2.208a7.129,7.129,0,0,0,4.409-2.443,10.088,10.088,0,0,0,7.146,6.145,9.318,9.318,0,0,0-.888,1.544,12.131,12.131,0,0,0-1.168,4.518,4.584,4.584,0,0,0,2.271,3.935,8.79,8.79,0,0,0-1.1,1.825,12.131,12.131,0,0,0-1.168,4.518,4.726,4.726,0,0,0,9.45,0,12.155,12.155,0,0,0-1.168-4.518,8.7,8.7,0,0,0-1.1-1.825,4.584,4.584,0,0,0,2.272-3.935,12.155,12.155,0,0,0-1.168-4.518,9.105,9.105,0,0,0-.976-1.664,10.143,10.143,0,0,0,5.3-3.6,7.356,7.356,0,0,0,1.172.1,7,7,0,0,0,7.082-6.906A6.747,6.747,0,0,0,338.517,315.748ZM280.1,310.363h6.354a6.149,6.149,0,0,0,.079,3.646h-6.513A6.158,6.158,0,0,0,280.1,310.363Zm3.177,12.816a4.909,4.909,0,0,1-4.966-4.841,4.7,4.7,0,0,1,.576-2.263h8.779a4.71,4.71,0,0,1,.576,2.263A4.91,4.91,0,0,1,283.275,323.179Zm11.945,22.027a2.609,2.609,0,0,1-5.217,0,10.23,10.23,0,0,1,.979-3.667c.684-1.471,1.348-2,1.629-2s.946.534,1.629,2A10.212,10.212,0,0,1,295.22,345.206Zm-2.608-7.735A2.579,2.579,0,0,1,290,334.928a10.23,10.23,0,0,1,.979-3.667c.684-1.471,1.348-2,1.629-2s.946.534,1.629,2a10.212,10.212,0,0,1,.98,3.667A2.58,2.58,0,0,1,292.612,337.471Zm10.309-50.177h9.4a4.847,4.847,0,0,1-9.4,0Zm4.7,12.365c-.2,0-.557-.4-.557-1.061s.361-1.059.557-1.059.557.4.557,1.059S307.819,299.659,307.621,299.659Zm.557,3.345c0,.657-.361,1.059-.557,1.059s-.557-.4-.557-1.059.361-1.059.557-1.059S308.178,302.346,308.178,303Zm-.557-7.75c-.2,0-.557-.4-.557-1.06s.361-1.059.557-1.059.557.4.557,1.059S307.819,295.253,307.621,295.253Zm2.74,49.952a2.609,2.609,0,0,1-5.217,0,10.23,10.23,0,0,1,.979-3.667c.684-1.471,1.348-2,1.629-2s.945.534,1.629,2A10.211,10.211,0,0,1,310.361,345.206Zm-.98-13.945a10.211,10.211,0,0,1,.98,3.667,2.609,2.609,0,0,1-5.217,0,10.23,10.23,0,0,1,.979-3.667c.684-1.471,1.348-2,1.629-2S308.7,329.791,309.381,331.261Zm-1.769-8.082a4.909,4.909,0,0,1-4.966-4.841,4.7,4.7,0,0,1,.576-2.263H312a4.707,4.707,0,0,1,.576,2.263A4.91,4.91,0,0,1,307.612,323.179Zm-3.177-12.816h6.354a6.149,6.149,0,0,0,.079,3.646h-6.514A6.149,6.149,0,0,0,304.435,310.363Zm-1.894-2.063a1.055,1.055,0,0,0-1,.705,1.008,1.008,0,0,0,.111.875h-.619a1.822,1.822,0,1,1,0-3.643h13.185a1.822,1.822,0,1,1,0,3.643h-.639a1.011,1.011,0,0,0,.111-.875,1.057,1.057,0,0,0-1-.705Zm22.96,36.906a2.609,2.609,0,0,1-5.217,0,10.211,10.211,0,0,1,.98-3.667c.682-1.471,1.348-2,1.629-2s.945.534,1.629,2A10.228,10.228,0,0,1,325.5,345.206Zm0-10.278a2.609,2.609,0,0,1-5.217,0,10.211,10.211,0,0,1,.98-3.667c.682-1.471,1.348-2,1.629-2s.945.534,1.629,2A10.228,10.228,0,0,1,325.5,334.928Zm3.272-24.565h6.354a6.159,6.159,0,0,0,.079,3.646h-6.512A6.16,6.16,0,0,0,328.772,310.363Zm3.177,12.816a4.909,4.909,0,0,1-4.966-4.841,4.711,4.711,0,0,1,.576-2.263h8.779a4.707,4.707,0,0,1,.576,2.263A4.91,4.91,0,0,1,331.949,323.179Z" transform="translate(642.808 93.625)" fill="#1e252b"/>
  </g>
</svg>
